{
  "menuItems": [
  {
    "label": "GRM Dashboard",
    "url": "https://grm-dashboard.astrouxds.com",
    "action": "visitUrl"
  },
  {
    "label": "GRM Equipment Manager",
    "url": "https://grm-equipment.astrouxds.com",
    "action": "visitUrl"
  },
  {
    "label": "GRM Schedule",
    "url": "https://grm-schedule.astrouxds.com",
    "action": "visitUrl"
  },
  {
    "label": "Preferences...",
    "action": "managePrefs",
    "dotted": true
  },
  {
    "label": "Sign Out...",
    "action": "signOut"
  }],
  "user":
  {
    "name": "J. Smith"
  },
  "dataServers":
  {
    "alerts": "wss://sockets.astrouxds.com/alerts",
    "statusIndicators": "wss://sockets.astrouxds.com/status",
    "systemHealth": "wss://sockets.astrouxds.com/health",
    "contacts": "https://services.astrouxds.com/contacts/recent",
    "mnemonics": "https://services.astrouxds.com/watchers/active"
  }
}